11, 2
2, 6
3, 12
4, 20
5, 30
6, 42
7, 56
8, 72
9, 90
10, 110
11, 132
12, 156
13, 182
14, 210
15, 240
16, 272
17, 306
18, 342
19, 380
20, 420
21, 462
22, 506
23, 552
24, 600
25, 650
26, 702
27, 756
28, 812
29, 870
30, 930
31, 992
32, 1056
33, 1122
34, 1190
35, 1260
36, 1332
37, 1406
38, 1482
39, 1560
40, 1640
41, 1722
42, 1806
43, 1892
44, 1980
45, 2070
46, 2162
47, 2256
48, 2352
49, 2450
50, 2550
51, 2652
52, 2756
53, 2862
54, 2970
55, 3080
56, 3192
57, 3306
58, 3422
59, 3540
60, 3660
61, 3782
62, 3906
63, 4032
64, 4160
65, 4290
66, 4422
67, 4556
68, 4692
69, 4830
70, 4970
71, 5112
72, 5256
73, 5402
74, 5550
75, 5700
76, 5852
77, 6006
78, 6162
79, 6320
80, 6480
81, 6642
82, 6806
83, 6972
84, 7140
85, 7310
86, 7482
87, 7656
88, 7832
89, 8010
90, 8190
91, 8372
92, 8556
93, 8742
94, 8930
95, 9120
96, 9312
97, 9506
98, 9702
99, 9900
100, 10100
101, 10302
102, 10506
103, 10712
104, 10920
105, 11130
106, 11342
107, 11556
108, 11772
109, 11990
110, 12210
111, 12432
112, 12656
113, 12882
114, 13110
115, 13340
116, 13572
117, 13806
118, 14042
119, 14280
120, 14520
121, 14762
122, 15006
123, 15252
124, 15500
125, 15750
126, 16002
127, 16256
128, 16512
129, 16770
130, 17030
131, 17292
132, 17556
133, 17822
134, 18090
135, 18360
136, 18632
137, 18906
138, 19182
139, 19460
140, 19740
141, 20022
142, 20306
143, 20592
144, 20880
145, 21170
146, 21462
147, 21756
148, 22052
149, 22350
150, 22650
151, 22952
152, 23256
153, 23562
154, 23870
155, 24180
156, 24492
157, 24806
158, 25122
159, 25440
160, 25760
161, 26082
162, 26406
163, 26732
164, 27060
165, 27390
166, 27722
167, 28056
168, 28392
169, 28730
170, 29070
171, 29412
172, 29756
173, 30102
174, 30450
175, 30800
176, 31152
177, 31506
178, 31862
179, 32220
180, 32580
181, 32942
182, 33306
183, 33672
184, 34040
185, 34410
186, 34782
187, 35156
188, 35532
189, 35910
190, 36290
191, 36672
192, 37056
193, 37442
194, 37830
195, 38220
196, 38612
197, 39006
198, 39402
199, 39800
200, 40200
