\relax 
\providecommand\hyper@newdestlabel[2]{}
\providecommand\HyperFirstAtBeginDocument{\AtBeginDocument}
\HyperFirstAtBeginDocument{\ifx\hyper@anchor\@undefined
\global\let\oldcontentsline\contentsline
\gdef\contentsline#1#2#3#4{\oldcontentsline{#1}{#2}{#3}}
\global\let\oldnewlabel\newlabel
\gdef\newlabel#1#2{\newlabelxx{#1}#2}
\gdef\newlabelxx#1#2#3#4#5#6{\oldnewlabel{#1}{{#2}{#3}}}
\AtEndDocument{\ifx\hyper@anchor\@undefined
\let\contentsline\oldcontentsline
\let\newlabel\oldnewlabel
\fi}
\fi}
\global\let\hyper@last\relax 
\gdef\HyperFirstAtBeginDocument#1{#1}
\providecommand\HyField@AuxAddToFields[1]{}
\providecommand\HyField@AuxAddToCoFields[2]{}
\catcode `:\active 
\catcode `;\active 
\catcode `!\active 
\catcode `?\active 
\@writefile{toc}{\beamer@endinputifotherversion {3.36pt}}
\@writefile{nav}{\beamer@endinputifotherversion {3.36pt}}
\select@language{french}
\@writefile{toc}{\select@language{french}}
\@writefile{lof}{\select@language{french}}
\@writefile{lot}{\select@language{french}}
\@writefile{nav}{\headcommand {\slideentry {0}{0}{1}{1/1}{}{0}}}
\@writefile{nav}{\headcommand {\beamer@framepages {1}{1}}}
\@writefile{nav}{\headcommand {\sectionentry {1}{Introduction}{2}{Introduction}{0}}}
\@writefile{nav}{\headcommand {\beamer@sectionpages {1}{1}}}
\@writefile{nav}{\headcommand {\beamer@subsectionpages {1}{1}}}
\@writefile{nav}{\headcommand {\slideentry {1}{0}{1}{2/2}{}{0}}}
\@writefile{nav}{\headcommand {\beamer@framepages {2}{2}}}
\@writefile{nav}{\headcommand {\slideentry {1}{0}{2}{3/3}{}{0}}}
\@writefile{nav}{\headcommand {\beamer@framepages {3}{3}}}
\@writefile{toc}{\beamer@sectionintoc {2}{Triangulation de Delaunay}{4}{0}{1}}
\@writefile{nav}{\headcommand {\sectionentry {2}{Triangulation de Delaunay}{4}{Triangulation de Delaunay}{0}}}
\@writefile{nav}{\headcommand {\beamer@sectionpages {2}{3}}}
\@writefile{nav}{\headcommand {\beamer@subsectionpages {2}{3}}}
\newlabel{sec:description}{{2}{4}{Triangulation de Delaunay}{Doc-Start}{}}
\@writefile{snm}{\beamer@slide {sec:description}{4}}
\@writefile{nav}{\headcommand {\slideentry {2}{0}{1}{4/4}{}{0}}}
\@writefile{nav}{\headcommand {\beamer@framepages {4}{4}}}
\@writefile{toc}{\beamer@subsectionintoc {2}{1}{R\IeC {\'e}solution du probl\IeC {\`e}me}{5}{0}{1}}
\@writefile{nav}{\headcommand {\beamer@subsectionentry {0}{2}{1}{5}{R\IeC {\'e}solution du probl\IeC {\`e}me}}\headcommand {\beamer@subsectionpages {4}{4}}}
\@writefile{nav}{\headcommand {\slideentry {2}{1}{1}{5/5}{R\IeC {\'e}solution du probl\IeC {\`e}me}{0}}}
\@writefile{nav}{\headcommand {\beamer@framepages {5}{5}}}
\@writefile{nav}{\headcommand {\slideentry {2}{1}{2}{6/10}{R\IeC {\'e}solution du probl\IeC {\`e}me}{0}}}
\@writefile{nav}{\headcommand {\beamer@framepages {6}{10}}}
\@writefile{nav}{\headcommand {\slideentry {2}{1}{3}{11/11}{R\IeC {\'e}solution du probl\IeC {\`e}me}{0}}}
\@writefile{nav}{\headcommand {\beamer@framepages {11}{11}}}
\@writefile{nav}{\headcommand {\slideentry {2}{1}{4}{12/14}{R\IeC {\'e}solution du probl\IeC {\`e}me}{0}}}
\@writefile{nav}{\headcommand {\beamer@framepages {12}{14}}}
\@writefile{toc}{\beamer@subsectionintoc {2}{2}{Validation}{15}{0}{1}}
\@writefile{nav}{\headcommand {\beamer@subsectionentry {0}{2}{2}{15}{Validation}}\headcommand {\beamer@subsectionpages {5}{14}}}
\newlabel{sec:validation}{{2}{15}{Validation}{Doc-Start}{}}
\@writefile{snm}{\beamer@slide {sec:validation}{15}}
\@writefile{nav}{\headcommand {\slideentry {2}{2}{1}{15/15}{Validation}{0}}}
\@writefile{nav}{\headcommand {\beamer@framepages {15}{15}}}
\@writefile{nav}{\headcommand {\slideentry {2}{2}{2}{16/16}{Validation}{0}}}
\@writefile{nav}{\headcommand {\beamer@framepages {16}{16}}}
\@writefile{toc}{\beamer@sectionintoc {3}{Morphing}{17}{0}{2}}
\@writefile{nav}{\headcommand {\sectionentry {3}{Morphing}{17}{Morphing}{0}}}
\@writefile{nav}{\headcommand {\beamer@sectionpages {4}{16}}}
\@writefile{nav}{\headcommand {\beamer@subsectionpages {15}{16}}}
\@writefile{nav}{\headcommand {\slideentry {3}{0}{1}{17/17}{}{0}}}
\@writefile{nav}{\headcommand {\beamer@framepages {17}{17}}}
\@writefile{toc}{\beamer@subsectionintoc {3}{1}{Introduction Morphing}{18}{0}{2}}
\@writefile{nav}{\headcommand {\beamer@subsectionentry {0}{3}{1}{18}{Introduction Morphing}}\headcommand {\beamer@subsectionpages {17}{17}}}
\@writefile{nav}{\headcommand {\slideentry {3}{1}{1}{18/18}{Introduction Morphing}{0}}}
\@writefile{nav}{\headcommand {\beamer@framepages {18}{18}}}
\@writefile{toc}{\beamer@subsubsectionintoc {3}{1}{1}{Lecture d'une image}{19}{0}{2}}
\@writefile{nav}{\headcommand {\beamer@subsubsectionentry {0}{3}{1}{1}{19}{Lecture d'une image}}}
\@writefile{nav}{\headcommand {\slideentry {3}{1}{2}{19/19}{Introduction Morphing}{0}}}
\@writefile{nav}{\headcommand {\beamer@framepages {19}{19}}}
\@writefile{toc}{\beamer@subsubsectionintoc {3}{1}{2}{Cr\IeC {\'e}ation d'un nuage de points}{20}{0}{2}}
\@writefile{nav}{\headcommand {\beamer@subsubsectionentry {0}{3}{1}{2}{20}{Cr\IeC {\'e}ation d'un nuage de points}}}
\@writefile{nav}{\headcommand {\slideentry {3}{1}{3}{20/22}{Introduction Morphing}{0}}}
\@writefile{nav}{\headcommand {\beamer@framepages {20}{22}}}
\@writefile{toc}{\beamer@subsubsectionintoc {3}{1}{3}{Calcul des transformations}{23}{0}{2}}
\@writefile{nav}{\headcommand {\beamer@subsubsectionentry {0}{3}{1}{3}{23}{Calcul des transformations}}}
\@writefile{nav}{\headcommand {\slideentry {3}{1}{4}{23/26}{Introduction Morphing}{0}}}
\@writefile{nav}{\headcommand {\beamer@framepages {23}{26}}}
\@writefile{toc}{\beamer@subsubsectionintoc {3}{1}{4}{R\IeC {\'e}sultat}{27}{0}{2}}
\@writefile{nav}{\headcommand {\beamer@subsubsectionentry {0}{3}{1}{4}{27}{R\IeC {\'e}sultat}}}
\@writefile{nav}{\headcommand {\slideentry {3}{1}{5}{27/27}{Introduction Morphing}{0}}}
\@writefile{nav}{\headcommand {\beamer@framepages {27}{27}}}
\@writefile{nav}{\headcommand {\slideentry {3}{1}{6}{28/28}{Introduction Morphing}{0}}}
\@writefile{nav}{\headcommand {\beamer@framepages {28}{28}}}
\@writefile{nav}{\headcommand {\slideentry {3}{1}{7}{29/29}{Introduction Morphing}{0}}}
\@writefile{nav}{\headcommand {\beamer@framepages {29}{29}}}
\@writefile{nav}{\headcommand {\slideentry {3}{1}{8}{30/30}{Introduction Morphing}{0}}}
\@writefile{nav}{\headcommand {\beamer@framepages {30}{30}}}
\@writefile{nav}{\headcommand {\slideentry {3}{1}{9}{31/31}{Introduction Morphing}{0}}}
\@writefile{nav}{\headcommand {\beamer@framepages {31}{31}}}
\@writefile{nav}{\headcommand {\slideentry {3}{1}{10}{32/32}{Introduction Morphing}{0}}}
\@writefile{nav}{\headcommand {\beamer@framepages {32}{32}}}
\@writefile{nav}{\headcommand {\slideentry {3}{1}{11}{33/33}{Introduction Morphing}{0}}}
\@writefile{nav}{\headcommand {\beamer@framepages {33}{33}}}
\@writefile{nav}{\headcommand {\slideentry {3}{1}{12}{34/34}{Introduction Morphing}{0}}}
\@writefile{nav}{\headcommand {\beamer@framepages {34}{34}}}
\@writefile{toc}{\beamer@sectionintoc {4}{Conclusion}{35}{0}{3}}
\@writefile{nav}{\headcommand {\sectionentry {4}{Conclusion}{35}{Conclusion}{0}}}
\@writefile{nav}{\headcommand {\beamer@sectionpages {17}{34}}}
\@writefile{nav}{\headcommand {\beamer@subsectionpages {18}{34}}}
\@writefile{nav}{\headcommand {\slideentry {4}{0}{1}{35/35}{}{0}}}
\@writefile{nav}{\headcommand {\beamer@framepages {35}{35}}}
\@writefile{nav}{\headcommand {\beamer@partpages {1}{35}}}
\@writefile{nav}{\headcommand {\beamer@subsectionpages {35}{35}}}
\@writefile{nav}{\headcommand {\beamer@sectionpages {35}{35}}}
\@writefile{nav}{\headcommand {\beamer@documentpages {35}}}
\@writefile{nav}{\headcommand {\def \inserttotalframenumber {24}}}
