\relax 
\catcode `:\active 
\catcode `;\active 
\catcode `!\active 
\catcode `?\active 
\select@language{french}
\@writefile{toc}{\select@language{french}}
\@writefile{lof}{\select@language{french}}
\@writefile{lot}{\select@language{french}}
\@writefile{toc}{\contentsline {section}{\numberline {1}Triangulation de Delaunay}{1}}
\newlabel{sec:triangulation}{{1}{1}}
\@writefile{toc}{\contentsline {subsection}{\numberline {1.1}Structures de donn\IeC {\'e}es et modules}{1}}
\@writefile{toc}{\contentsline {subsubsection}{\numberline {1.1.1}Module \emph  {Geometry}}{1}}
\@writefile{toc}{\contentsline {subsubsection}{\numberline {1.1.2}Module \emph  {Matrix}}{2}}
\@writefile{toc}{\contentsline {subsubsection}{\numberline {1.1.3}Module \emph  {Graphic}}{2}}
\@writefile{toc}{\contentsline {subsubsection}{\numberline {1.1.4}Module \emph  {Check}}{2}}
\@writefile{toc}{\contentsline {subsection}{\numberline {1.2}Algorithmes principaux}{2}}
\@writefile{toc}{\contentsline {subsection}{\numberline {1.3}Validation}{3}}
\@writefile{toc}{\contentsline {section}{\numberline {2}Extension}{3}}
\newlabel{sec:extension}{{2}{3}}
\@writefile{toc}{\contentsline {subsection}{\numberline {2.1}Contribution}{3}}
\@writefile{toc}{\contentsline {subsection}{\numberline {2.2}Validation}{3}}
\@writefile{toc}{\contentsline {section}{\numberline {3}Conclusion}{3}}
