\relax 
\catcode `:\active 
\catcode `;\active 
\catcode `!\active 
\catcode `?\active 
\select@language{french}
\@writefile{toc}{\select@language{french}}
\@writefile{lof}{\select@language{french}}
\@writefile{lot}{\select@language{french}}
\@writefile{toc}{\contentsline {section}{\numberline {1}Triangulation de Delaunay}{1}}
\newlabel{sec:triangulation}{{1}{1}}
\@writefile{toc}{\contentsline {subsection}{\numberline {1.1}Structures de donn\IeC {\'e}es et modules de base}{1}}
\@writefile{toc}{\contentsline {subsubsection}{\numberline {1.1.1}Module \lstinline {Geometry}}{1}}
\@writefile{toc}{\contentsline {subsubsection}{\numberline {1.1.2}Module \lstinline {Matrix}}{2}}
\@writefile{toc}{\contentsline {subsubsection}{\numberline {1.1.3}Module \lstinline {Graphic}}{2}}
\@writefile{toc}{\contentsline {subsection}{\numberline {1.2}Algorithme principal}{2}}
\@writefile{toc}{\contentsline {subsection}{\numberline {1.3}Validation}{2}}
\@writefile{toc}{\contentsline {subsubsection}{\numberline {1.3.1}Module \lstinline {Check}}{2}}
\@writefile{toc}{\contentsline {paragraph}{\ }{2}}
\@writefile{toc}{\contentsline {paragraph}{\ }{3}}
\@writefile{toc}{\contentsline {paragraph}{\ }{3}}
\@writefile{toc}{\contentsline {paragraph}{\ }{3}}
\@writefile{toc}{\contentsline {paragraph}{\ }{3}}
\@writefile{toc}{\contentsline {subsubsection}{\numberline {1.3.2}Etude de la complexit\IeC {\'e}}{3}}
\@writefile{toc}{\contentsline {section}{\numberline {2}Extension}{3}}
\newlabel{sec:extension}{{2}{3}}
\@writefile{toc}{\contentsline {subsection}{\numberline {2.1}Contribution}{3}}
\@writefile{toc}{\contentsline {subsubsection}{\numberline {2.1.1}Le morphing}{3}}
\@writefile{lof}{\contentsline {figure}{\numberline {1}{\ignorespaces Evolution de la racine carr\IeC {\'e} du nombre de calcul de d\IeC {\'e}terminant en fonction du nombre de points \IeC {\`a} trianguler}}{4}}
\@writefile{toc}{\contentsline {subsubsection}{\numberline {2.1.2}Lecture d'une image}{4}}
\@writefile{toc}{\contentsline {subsubsection}{\numberline {2.1.3}Cr\IeC {\'e}ation d'un nuage de points}{4}}
\@writefile{toc}{\contentsline {subsubsection}{\numberline {2.1.4}Calcul des transformations}{4}}
\@writefile{lof}{\contentsline {figure}{\numberline {2}{\ignorespaces Morphing de deux grands Informaticiens}}{5}}
\@writefile{toc}{\contentsline {subsection}{\numberline {2.2}Validation}{5}}
\@writefile{toc}{\contentsline {section}{\numberline {3}Conclusion}{5}}
\@writefile{toc}{\contentsline {paragraph}{\ }{5}}
\@writefile{toc}{\contentsline {paragraph}{\ }{5}}
